Biostat 203B Homework 5
…
  mutate(los_long = as.factor(los_long)) |>
  mutate(race = as.factor(race)) |>
  mutate(marital_status = as.factor(marital_status)) |>
  mutate(gender = as.factor(gender)) |>
  mutate(langeuage = as.factor(language)) |>
  mutate(insurance = as.factor(insurance)) |>
  mutate(admission_type = as.factor(admission_type)) |>
  mutate(admission_location = as.factor(admission_location)) |>
  mutate(discharge_location = as.factor(discharge_location)) |>
  mutate(age = as.numeric(age)) |>
  select(-los, -anchor_age, -anchor_year, -anchor_year_group) |>
  na.omit() |>
  print() 

# A tibble: 4,518 × 35
   subject_id  hadm_id  stay_id first_careunit               intime             
        <int>    <int>    <int> <fct>                        <dttm>             
 1   10001884 26184834 37510196 Medical Intensive Care Unit… 2131-01-11 04:20:05
 2   10002155 20345487 32358465 Medical Intensive Care Unit… 2131-03-09 21:33:00
 3   10004401 25777141 39699336 Medical Intensive Care Unit… 2144-06-05 20:36:00
 4   10004720 22081550 35009126 Surgical Intensive Care Uni… 2186-11-12 19:55:00
 5   10010471 29842315 32119961 Other                        2155-12-02 20:33:00
 6   10011365 26712576 37153661 Cardiac Vascular Intensive … 2166-02-11 16:03:00
 7   10012292 28665904 37005236 Medical Intensive Care Unit… 2171-07-17 20:39:42
 8   10017492 27417763 36035031 Other                        2116-06-27 17:35:34
 9   10017492 27417763 39543480 Other                        2116-06-26 20:35:09
10   10017851 29414705 39558308 Medical Intensive Care Unit… 2115-11-21 19:49:00
# ℹ 4,508 more rows
# ℹ 30 more variables: outtime <dttm>, admittime <dttm>, dischtime <dttm>,
#   deathtime <dttm>, admission_type <fct>, admission_location <fct>,
#   discharge_location <fct>, insurance <fct>, language <chr>,
#   marital_status <fct>, race <fct>, edregtime <dttm>, edouttime <dttm>,
#   gender <fct>, age <dbl>, wbc <dbl>, bicarbonate <dbl>, glucose <dbl>,
#   sodium <dbl>, creatinine <dbl>, chloride <dbl>, hematocrit <dbl>, …
…
Main Arguments:
  cost = tune()
  rbf_sigma = tune()

Computational engine: kernlab 

param_grid <- grid_regular(
  cost(range = c(-8, 5)),
  rbf_sigma(range = c(-5, -3)),
  levels = c(14, 5)
  )
param_grid

# A tibble: 70 × 2
      cost rbf_sigma
     <dbl>     <dbl>
 1 0.00391   0.00001
 2 0.00781   0.00001
 3 0.0156    0.00001
 4 0.0312    0.00001
 5 0.0625    0.00001
 6 0.125     0.00001
 7 0.25      0.00001
 8 0.5       0.00001
 9 1         0.00001
10 2         0.00001
# ℹ 60 more rows
…
svm_fit |>
  collect_metrics() |>
  print(width = Inf) |>
  filter(.metric == "roc_auc") |>
  ggplot(mapping = aes(x = cost, y = mean, color = factor(rbf_sigma))) +
  geom_point() +
  labs(x = "Cost", y = "CV AUC") +
  scale_x_log10()

# A tibble: 140 × 8
      cost rbf_sigma .metric  .estimator  mean     n std_err
     <dbl>     <dbl> <chr>    <chr>      <dbl> <int>   <dbl>
 1 0.00391   0.00001 accuracy binary     0.624     5 0.00569
 2 0.00391   0.00001 roc_auc  binary     0.508     5 0.0136 
 3 0.00781   0.00001 accuracy binary     0.624     5 0.00569
 4 0.00781   0.00001 roc_auc  binary     0.508     5 0.0136 
 5 0.0156    0.00001 accuracy binary     0.624     5 0.00569
 6 0.0156    0.00001 roc_auc  binary     0.490     5 0.0133 
 7 0.0312    0.00001 accuracy binary     0.624     5 0.00569
 8 0.0312    0.00001 roc_auc  binary     0.490     5 0.0133 
 9 0.0625    0.00001 accuracy binary     0.624     5 0.00569
10 0.0625    0.00001 roc_auc  binary     0.490     5 0.0133 
   .config              
   <chr>                
 1 Preprocessor1_Model01
 2 Preprocessor1_Model01
 3 Preprocessor1_Model02
 4 Preprocessor1_Model02
 5 Preprocessor1_Model03
 6 Preprocessor1_Model03
 7 Preprocessor1_Model04
 8 Preprocessor1_Model04
 9 Preprocessor1_Model05
10 Preprocessor1_Model05
# ℹ 130 more rows
…
Main Arguments:
  mtry = tune()
  trees = tune()

Computational engine: ranger 

param_grid2 <- grid_regular(
  trees(range = c(100L, 500L)),
  mtry(range = c(1L, 5L)),
  levels = c(5, 5)
  )
param_grid2

# A tibble: 25 × 2
   trees  mtry
   <int> <int>
 1   100     1
 2   200     1
 3   300     1
 4   400     1
 5   500     1
 6   100     2
 7   200     2
 8   300     2
 9   400     2
10   500     2
# ℹ 15 more rows
…
rf_fit |>
  collect_metrics() |>
  print(width = Inf) |>
  filter(.metric == "roc_auc") |>
  ggplot(mapping = aes(x = trees, y = mean, color = factor(mtry))) +
  geom_point() +
  labs(x = "Num. of Trees", y = "CV AUC") 

# A tibble: 50 × 8
    mtry trees .metric  .estimator  mean     n std_err .config              
   <int> <int> <chr>    <chr>      <dbl> <int>   <dbl> <chr>                
 1     1   100 accuracy binary     0.626     5 0.00473 Preprocessor1_Model01
 2     1   100 roc_auc  binary     0.561     5 0.00806 Preprocessor1_Model01
 3     1   200 accuracy binary     0.628     5 0.00561 Preprocessor1_Model02
 4     1   200 roc_auc  binary     0.560     5 0.0129  Preprocessor1_Model02
 5     1   300 accuracy binary     0.629     5 0.00667 Preprocessor1_Model03
 6     1   300 roc_auc  binary     0.569     5 0.0103  Preprocessor1_Model03
 7     1   400 accuracy binary     0.626     5 0.00791 Preprocessor1_Model04
 8     1   400 roc_auc  binary     0.566     5 0.0131  Preprocessor1_Model04
 9     1   500 accuracy binary     0.624     5 0.00563 Preprocessor1_Model05
10     1   500 roc_auc  binary     0.563     5 0.0145  Preprocessor1_Model05
# ℹ 40 more rows
…
Main Arguments:
  trees = 1000
  tree_depth = tune()
  learn_rate = tune()

Computational engine: xgboost 

param_grid3 <- grid_regular(
  tree_depth(range = c(1L, 3L)),
  learn_rate(range = c(-5, 2), trans = log10_trans()),
  levels = c(3,10)
  )
param_grid3

# A tibble: 30 × 2
   tree_depth learn_rate
        <int>      <dbl>
 1          1  0.00001  
 2          2  0.00001  
 3          3  0.00001  
 4          1  0.0000599
 5          2  0.0000599
 6          3  0.0000599
 7          1  0.000359 
 8          2  0.000359 
 9          3  0.000359 
10          1  0.00215  
# ℹ 20 more rows
…
gb_fit |>
  collect_metrics() |>
  print(width = Inf) |>
  filter(.metric == "roc_auc") |>
  ggplot(mapping = aes(x = learn_rate, y = mean, color = factor(tree_depth))) +
  geom_point() +
  labs(x = "Learning Rate", y = "CV AUC") +
  scale_x_log10()

# A tibble: 60 × 8
   tree_depth learn_rate .metric  .estimator  mean     n std_err
        <int>      <dbl> <chr>    <chr>      <dbl> <int>   <dbl>
 1          1  0.00001   accuracy binary     0.614     5 0.00820
 2          1  0.00001   roc_auc  binary     0.526     5 0.0113 
 3          2  0.00001   accuracy binary     0.632     5 0.00581
 4          2  0.00001   roc_auc  binary     0.544     5 0.0173 
 5          3  0.00001   accuracy binary     0.620     5 0.00722
 6          3  0.00001   roc_auc  binary     0.560     5 0.0126 
 7          1  0.0000599 accuracy binary     0.614     5 0.00820
 8          1  0.0000599 roc_auc  binary     0.530     5 0.0131 
 9          2  0.0000599 accuracy binary     0.632     5 0.00581
10          2  0.0000599 roc_auc  binary     0.544     5 0.0169 
   .config              
   <chr>                
 1 Preprocessor1_Model01
 2 Preprocessor1_Model01
 3 Preprocessor1_Model02
 4 Preprocessor1_Model02
 5 Preprocessor1_Model03
 6 Preprocessor1_Model03
 7 Preprocessor1_Model04
 8 Preprocessor1_Model04
 9 Preprocessor1_Model05
10 Preprocessor1_Model05
# ℹ 50 more rows
…
collect_parameters(mimic_model_st, "rf_res2")

# A tibble: 25 × 5
   member        mtry trees terms                    coef
   <chr>        <int> <int> <chr>                   <dbl>
 1 rf_res2_1_01     1   100 .pred_TRUE_rf_res2_1_01 0    
 2 rf_res2_1_02     1   200 .pred_TRUE_rf_res2_1_02 0    
 3 rf_res2_1_03     1   300 .pred_TRUE_rf_res2_1_03 0    
 4 rf_res2_1_04     1   400 .pred_TRUE_rf_res2_1_04 0    
 5 rf_res2_1_05     1   500 .pred_TRUE_rf_res2_1_05 0    
 6 rf_res2_1_06     2   100 .pred_TRUE_rf_res2_1_06 0    
 7 rf_res2_1_07     2   200 .pred_TRUE_rf_res2_1_07 0    
 8 rf_res2_1_08     2   300 .pred_TRUE_rf_res2_1_08 0    
 9 rf_res2_1_09     2   400 .pred_TRUE_rf_res2_1_09 0.964
10 rf_res2_1_10     2   500 .pred_TRUE_rf_res2_1_10 0    
# ℹ 15 more rows
…
mimic_pred <-
  mimic_test |>
  select(los_long) |>
  bind_cols(
    predict(
      mimic_model_st,
      mimic_test,
      type = "class",
      members = TRUE
      )
    ) |>
  print(width = Inf)

# A tibble: 2,260 × 9
   los_long .pred_class .pred_class_rf_res2_1_09 .pred_class_rf_res2_1_20
   <fct>    <fct>       <fct>                    <fct>                   
 1 TRUE     TRUE        TRUE                     TRUE                    
 2 TRUE     TRUE        TRUE                     TRUE                    
 3 TRUE     FALSE       TRUE                     TRUE                    
 4 TRUE     TRUE        TRUE                     TRUE                    
 5 FALSE    FALSE       TRUE                     TRUE                    
 6 FALSE    TRUE        TRUE                     TRUE                    
 7 TRUE     TRUE        TRUE                     TRUE                    
 8 FALSE    TRUE        TRUE                     TRUE                    
 9 FALSE    TRUE        TRUE                     TRUE                    
10 FALSE    FALSE       TRUE                     TRUE                    
   .pred_class_rf_res2_1_21 .pred_class_gb_res1_1_25 .pred_class_gb_res1_1_20
   <fct>                    <fct>                    <fct>                   
 1 TRUE                     FALSE                    TRUE                    
 2 TRUE                     FALSE                    TRUE                    
 3 TRUE                     FALSE                    FALSE                   
 4 TRUE                     FALSE                    TRUE                    
 5 FALSE                    FALSE                    FALSE                   
 6 TRUE                     FALSE                    FALSE                   
 7 TRUE                     FALSE                    TRUE                    
 8 TRUE                     FALSE                    TRUE                    
 9 TRUE                     FALSE                    TRUE                    
10 TRUE                     FALSE                    FALSE                   
   .pred_class_gb_res1_1_29 .pred_class_gb_res1_1_03
   <fct>                    <fct>                   
 1 TRUE                     TRUE                    
 2 TRUE                     TRUE                    
 3 FALSE                    FALSE                   
 4 TRUE                     TRUE                    
 5 FALSE                    TRUE                    
 6 TRUE                     TRUE                    
 7 TRUE                     TRUE                    
 8 TRUE                     TRUE                    
 9 TRUE                     TRUE                    
10 FALSE                    TRUE                    
# ℹ 2,250 more rows
…
